{
  "dimensions": [
    43,
    43
  ],
  "delay": 150,
  "bonus": 2,
  "maxSpeed": 5,
  "foodProbaDefault": 90,
  "foodProbaShrink": 10,
  "walls": [
    [
      18,
      0
    ],
    [
      18,
      1
    ],
    [
      18,
      2
    ],
    [
      18,
      3
    ],
    [
      18,
      4
    ],
    [
      18,
      5
    ],
    [
      18,
      6
    ],
    [
      24,
      0
    ],
    [
      24,
      1
    ],
    [
      24,
      2
    ],
    [
      24,
      3
    ],
    [
      24,
      4
    ],
    [
      24,
      5
    ],
    [
      24,
      6
    ],
    [
      24,
      42
    ],
    [
      24,
      41
    ],
    [
      24,
      40
    ],
    [
      24,
      39
    ],
    [
      24,
      38
    ],
    [
      18,
      42
    ],
    [
      18,
      41
    ],
    [
      18,
      40
    ],
    [
      18,
      39
    ],
    [
      18,
      38
    ],
    [
      18,
      37
    ],
    [
      24,
      37
    ],
    [
      24,
      36
    ],
    [
      18,
      36
    ],
    [
      18,
      35
    ],
    [
      24,
      35
    ],
    [
      18,
      34
    ],
    [
      18,
      33
    ],
    [
      18,
      32
    ],
    [
      18,
      31
    ],
    [
      18,
      30
    ],
    [
      24,
      34
    ],
    [
      24,
      33
    ],
    [
      24,
      32
    ],
    [
      24,
      31
    ],
    [
      24,
      30
    ],
    [
      18,
      7
    ],
    [
      18,
      8
    ],
    [
      18,
      9
    ],
    [
      18,
      10
    ],
    [
      18,
      11
    ],
    [
      24,
      7
    ],
    [
      24,
      8
    ],
    [
      24,
      9
    ],
    [
      24,
      10
    ],
    [
      24,
      11
    ],
    [
      18,
      29
    ],
    [
      18,
      28
    ],
    [
      18,
      27
    ],
    [
      18,
      26
    ],
    [
      18,
      25
    ],
    [
      24,
      29
    ],
    [
      24,
      28
    ],
    [
      24,
      27
    ],
    [
      24,
      26
    ],
    [
      24,
      25
    ],
    [
      18,
      12
    ],
    [
      18,
      13
    ],
    [
      18,
      14
    ],
    [
      18,
      15
    ],
    [
      18,
      16
    ],
    [
      18,
      17
    ],
    [
      24,
      12
    ],
    [
      24,
      13
    ],
    [
      24,
      14
    ],
    [
      24,
      15
    ],
    [
      24,
      16
    ],
    [
      24,
      17
    ],
    [
      25,
      18
    ],
    [
      26,
      18
    ],
    [
      27,
      18
    ],
    [
      28,
      18
    ],
    [
      29,
      18
    ],
    [
      30,
      18
    ],
    [
      31,
      18
    ],
    [
      32,
      18
    ],
    [
      33,
      18
    ],
    [
      34,
      18
    ],
    [
      35,
      18
    ],
    [
      36,
      18
    ],
    [
      37,
      18
    ],
    [
      38,
      18
    ],
    [
      39,
      18
    ],
    [
      40,
      18
    ],
    [
      41,
      18
    ],
    [
      42,
      18
    ],
    [
      25,
      24
    ],
    [
      26,
      24
    ],
    [
      27,
      24
    ],
    [
      28,
      24
    ],
    [
      29,
      24
    ],
    [
      30,
      24
    ],
    [
      31,
      24
    ],
    [
      32,
      24
    ],
    [
      33,
      24
    ],
    [
      34,
      24
    ],
    [
      37,
      24
    ],
    [
      38,
      24
    ],
    [
      39,
      24
    ],
    [
      40,
      24
    ],
    [
      41,
      24
    ],
    [
      42,
      24
    ],
    [
      35,
      24
    ],
    [
      36,
      24
    ],
    [
      17,
      24
    ],
    [
      16,
      24
    ],
    [
      15,
      24
    ],
    [
      14,
      24
    ],
    [
      13,
      24
    ],
    [
      12,
      24
    ],
    [
      10,
      24
    ],
    [
      4,
      24
    ],
    [
      3,
      24
    ],
    [
      2,
      24
    ],
    [
      1,
      24
    ],
    [
      0,
      24
    ],
    [
      5,
      24
    ],
    [
      6,
      24
    ],
    [
      7,
      24
    ],
    [
      8,
      24
    ],
    [
      9,
      24
    ],
    [
      11,
      24
    ],
    [
      17,
      18
    ],
    [
      16,
      18
    ],
    [
      15,
      18
    ],
    [
      14,
      18
    ],
    [
      13,
      18
    ],
    [
      12,
      18
    ],
    [
      11,
      18
    ],
    [
      10,
      18
    ],
    [
      9,
      18
    ],
    [
      5,
      18
    ],
    [
      4,
      18
    ],
    [
      3,
      18
    ],
    [
      2,
      18
    ],
    [
      0,
      18
    ],
    [
      1,
      18
    ],
    [
      8,
      18
    ],
    [
      7,
      18
    ],
    [
      6,
      18
    ],
    [
      32,
      31
    ],
    [
      32,
      32
    ],
    [
      33,
      32
    ],
    [
      34,
      32
    ],
    [
      34,
      33
    ],
    [
      35,
      33
    ],
    [
      35,
      35
    ],
    [
      35,
      36
    ],
    [
      34,
      37
    ],
    [
      33,
      37
    ],
    [
      33,
      38
    ],
    [
      33,
      36
    ],
    [
      36,
      31
    ],
    [
      37,
      30
    ],
    [
      37,
      31
    ],
    [
      36,
      33
    ],
    [
      34,
      34
    ],
    [
      32,
      37
    ],
    [
      31,
      39
    ],
    [
      31,
      38
    ],
    [
      33,
      35
    ],
    [
      36,
      32
    ],
    [
      39,
      29
    ],
    [
      41,
      27
    ],
    [
      41,
      28
    ],
    [
      39,
      30
    ],
    [
      36,
      34
    ],
    [
      34,
      36
    ],
    [
      32,
      40
    ],
    [
      34,
      39
    ],
    [
      36,
      37
    ],
    [
      37,
      37
    ],
    [
      38,
      36
    ],
    [
      39,
      36
    ],
    [
      39,
      37
    ],
    [
      38,
      38
    ],
    [
      35,
      40
    ],
    [
      32,
      42
    ],
    [
      31,
      40
    ],
    [
      36,
      35
    ],
    [
      38,
      34
    ],
    [
      39,
      33
    ],
    [
      35,
      37
    ],
    [
      32,
      39
    ],
    [
      31,
      41
    ],
    [
      30,
      41
    ],
    [
      38,
      39
    ],
    [
      34,
      42
    ],
    [
      37,
      41
    ],
    [
      38,
      40
    ],
    [
      39,
      40
    ],
    [
      38,
      41
    ],
    [
      40,
      40
    ],
    [
      41,
      40
    ],
    [
      31,
      42
    ],
    [
      33,
      41
    ],
    [
      34,
      41
    ],
    [
      35,
      42
    ],
    [
      32,
      41
    ],
    [
      33,
      40
    ],
    [
      35,
      39
    ],
    [
      35,
      41
    ],
    [
      33,
      42
    ],
    [
      36,
      40
    ],
    [
      37,
      40
    ],
    [
      36,
      42
    ],
    [
      37,
      42
    ],
    [
      39,
      39
    ],
    [
      39,
      41
    ],
    [
      40,
      41
    ],
    [
      41,
      41
    ],
    [
      41,
      42
    ],
    [
      40,
      42
    ],
    [
      38,
      42
    ],
    [
      39,
      42
    ],
    [
      42,
      42
    ],
    [
      42,
      41
    ],
    [
      42,
      40
    ],
    [
      41,
      39
    ],
    [
      41,
      38
    ],
    [
      41,
      37
    ],
    [
      40,
      36
    ],
    [
      40,
      35
    ],
    [
      40,
      34
    ],
    [
      40,
      33
    ],
    [
      40,
      32
    ],
    [
      40,
      31
    ],
    [
      40,
      30
    ],
    [
      40,
      29
    ],
    [
      40,
      28
    ],
    [
      40,
      27
    ],
    [
      41,
      30
    ],
    [
      41,
      31
    ],
    [
      42,
      32
    ],
    [
      42,
      34
    ],
    [
      42,
      35
    ],
    [
      42,
      36
    ],
    [
      40,
      39
    ],
    [
      40,
      38
    ],
    [
      40,
      37
    ],
    [
      41,
      35
    ],
    [
      41,
      36
    ],
    [
      42,
      37
    ],
    [
      42,
      38
    ],
    [
      42,
      39
    ],
    [
      41,
      34
    ],
    [
      41,
      33
    ],
    [
      41,
      32
    ],
    [
      41,
      29
    ],
    [
      42,
      27
    ],
    [
      42,
      26
    ],
    [
      42,
      25
    ],
    [
      42,
      28
    ],
    [
      42,
      29
    ],
    [
      42,
      33
    ],
    [
      42,
      31
    ],
    [
      42,
      30
    ],
    [
      40,
      26
    ],
    [
      39,
      27
    ],
    [
      39,
      28
    ],
    [
      39,
      31
    ],
    [
      38,
      32
    ],
    [
      38,
      33
    ],
    [
      38,
      35
    ],
    [
      38,
      37
    ],
    [
      39,
      38
    ],
    [
      38,
      31
    ],
    [
      39,
      32
    ],
    [
      37,
      39
    ],
    [
      36,
      41
    ],
    [
      34,
      40
    ],
    [
      30,
      40
    ],
    [
      30,
      42
    ],
    [
      29,
      42
    ],
    [
      28,
      42
    ],
    [
      27,
      41
    ],
    [
      26,
      41
    ],
    [
      25,
      41
    ],
    [
      25,
      42
    ],
    [
      26,
      42
    ],
    [
      27,
      42
    ],
    [
      28,
      41
    ],
    [
      29,
      41
    ],
    [
      29,
      40
    ],
    [
      30,
      39
    ],
    [
      30,
      38
    ],
    [
      30,
      37
    ],
    [
      31,
      36
    ],
    [
      31,
      35
    ],
    [
      31,
      34
    ],
    [
      31,
      33
    ],
    [
      29,
      39
    ],
    [
      28,
      37
    ],
    [
      28,
      36
    ],
    [
      28,
      35
    ],
    [
      28,
      34
    ],
    [
      28,
      38
    ],
    [
      27,
      38
    ],
    [
      27,
      39
    ],
    [
      27,
      37
    ],
    [
      27,
      36
    ],
    [
      27,
      35
    ],
    [
      26,
      37
    ],
    [
      26,
      38
    ],
    [
      26,
      39
    ],
    [
      25,
      39
    ],
    [
      25,
      40
    ],
    [
      25,
      36
    ],
    [
      25,
      35
    ],
    [
      25,
      34
    ],
    [
      25,
      33
    ],
    [
      25,
      32
    ],
    [
      25,
      31
    ],
    [
      26,
      32
    ],
    [
      26,
      33
    ],
    [
      26,
      34
    ],
    [
      26,
      36
    ],
    [
      26,
      40
    ],
    [
      25,
      38
    ],
    [
      25,
      37
    ],
    [
      26,
      31
    ],
    [
      26,
      35
    ],
    [
      27,
      40
    ],
    [
      28,
      40
    ],
    [
      28,
      39
    ],
    [
      29,
      38
    ],
    [
      29,
      37
    ],
    [
      29,
      36
    ],
    [
      29,
      35
    ],
    [
      30,
      34
    ],
    [
      30,
      36
    ],
    [
      33,
      34
    ],
    [
      32,
      38
    ],
    [
      35,
      38
    ],
    [
      33,
      39
    ],
    [
      34,
      38
    ],
    [
      36,
      39
    ],
    [
      37,
      38
    ],
    [
      36,
      38
    ],
    [
      37,
      36
    ],
    [
      37,
      35
    ],
    [
      39,
      34
    ],
    [
      39,
      35
    ],
    [
      36,
      36
    ],
    [
      37,
      34
    ],
    [
      37,
      32
    ],
    [
      37,
      33
    ],
    [
      35,
      34
    ],
    [
      31,
      37
    ],
    [
      34,
      35
    ],
    [
      32,
      36
    ],
    [
      32,
      35
    ],
    [
      32,
      33
    ],
    [
      32,
      34
    ],
    [
      33,
      33
    ],
    [
      34,
      31
    ],
    [
      35,
      31
    ],
    [
      36,
      30
    ],
    [
      38,
      30
    ],
    [
      30,
      35
    ],
    [
      29,
      34
    ],
    [
      35,
      32
    ],
    [
      28,
      33
    ],
    [
      27,
      34
    ],
    [
      27,
      33
    ],
    [
      27,
      32
    ],
    [
      27,
      31
    ],
    [
      27,
      30
    ],
    [
      26,
      30
    ],
    [
      26,
      29
    ],
    [
      26,
      28
    ],
    [
      25,
      28
    ],
    [
      25,
      27
    ],
    [
      25,
      29
    ],
    [
      25,
      30
    ],
    [
      25,
      26
    ],
    [
      25,
      25
    ],
    [
      26,
      25
    ],
    [
      27,
      25
    ],
    [
      28,
      26
    ],
    [
      29,
      26
    ],
    [
      30,
      26
    ],
    [
      31,
      26
    ],
    [
      32,
      26
    ],
    [
      33,
      27
    ],
    [
      34,
      27
    ],
    [
      35,
      27
    ],
    [
      36,
      27
    ],
    [
      37,
      27
    ],
    [
      37,
      26
    ],
    [
      38,
      26
    ],
    [
      39,
      26
    ],
    [
      40,
      25
    ],
    [
      41,
      25
    ],
    [
      41,
      26
    ],
    [
      36,
      26
    ],
    [
      35,
      26
    ],
    [
      35,
      25
    ],
    [
      34,
      25
    ],
    [
      33,
      25
    ],
    [
      32,
      25
    ],
    [
      31,
      25
    ],
    [
      30,
      25
    ],
    [
      29,
      25
    ],
    [
      28,
      25
    ],
    [
      28,
      27
    ],
    [
      27,
      27
    ],
    [
      26,
      27
    ],
    [
      26,
      26
    ],
    [
      27,
      26
    ],
    [
      28,
      28
    ],
    [
      29,
      29
    ],
    [
      28,
      29
    ],
    [
      27,
      29
    ],
    [
      27,
      28
    ],
    [
      29,
      27
    ],
    [
      30,
      28
    ],
    [
      30,
      29
    ],
    [
      30,
      30
    ],
    [
      30,
      31
    ],
    [
      30,
      32
    ],
    [
      30,
      33
    ],
    [
      29,
      33
    ],
    [
      29,
      32
    ],
    [
      28,
      31
    ],
    [
      28,
      30
    ],
    [
      29,
      30
    ],
    [
      29,
      31
    ],
    [
      29,
      28
    ],
    [
      28,
      32
    ],
    [
      31,
      30
    ],
    [
      31,
      31
    ],
    [
      32,
      30
    ],
    [
      33,
      30
    ],
    [
      33,
      31
    ],
    [
      35,
      29
    ],
    [
      36,
      29
    ],
    [
      36,
      28
    ],
    [
      34,
      30
    ],
    [
      35,
      30
    ],
    [
      37,
      28
    ],
    [
      38,
      28
    ],
    [
      38,
      27
    ],
    [
      37,
      29
    ],
    [
      38,
      29
    ],
    [
      31,
      32
    ],
    [
      33,
      29
    ],
    [
      34,
      28
    ],
    [
      34,
      29
    ],
    [
      32,
      29
    ],
    [
      35,
      28
    ],
    [
      31,
      29
    ],
    [
      32,
      28
    ],
    [
      33,
      28
    ],
    [
      31,
      28
    ],
    [
      30,
      27
    ],
    [
      31,
      27
    ],
    [
      32,
      27
    ],
    [
      34,
      26
    ],
    [
      33,
      26
    ],
    [
      36,
      25
    ],
    [
      37,
      25
    ],
    [
      38,
      25
    ],
    [
      39,
      25
    ],
    [
      24,
      24
    ],
    [
      24,
      18
    ],
    [
      18,
      18
    ],
    [
      18,
      24
    ],
    [
      17,
      25
    ],
    [
      17,
      26
    ],
    [
      17,
      27
    ],
    [
      17,
      28
    ],
    [
      17,
      29
    ],
    [
      16,
      29
    ],
    [
      16,
      30
    ],
    [
      16,
      31
    ],
    [
      16,
      32
    ],
    [
      16,
      33
    ],
    [
      16,
      34
    ],
    [
      16,
      35
    ],
    [
      16,
      36
    ],
    [
      16,
      37
    ],
    [
      16,
      38
    ],
    [
      16,
      39
    ],
    [
      17,
      37
    ],
    [
      17,
      30
    ],
    [
      17,
      31
    ],
    [
      17,
      32
    ],
    [
      17,
      38
    ],
    [
      17,
      35
    ],
    [
      17,
      34
    ],
    [
      17,
      33
    ],
    [
      17,
      39
    ],
    [
      17,
      40
    ],
    [
      17,
      41
    ],
    [
      17,
      42
    ],
    [
      16,
      42
    ],
    [
      16,
      41
    ],
    [
      15,
      41
    ],
    [
      14,
      41
    ],
    [
      14,
      40
    ],
    [
      13,
      40
    ],
    [
      12,
      40
    ],
    [
      11,
      40
    ],
    [
      10,
      40
    ],
    [
      9,
      40
    ],
    [
      8,
      40
    ],
    [
      7,
      40
    ],
    [
      6,
      40
    ],
    [
      6,
      41
    ],
    [
      5,
      41
    ],
    [
      4,
      41
    ],
    [
      4,
      42
    ],
    [
      3,
      42
    ],
    [
      2,
      42
    ],
    [
      1,
      42
    ],
    [
      0,
      42
    ],
    [
      0,
      41
    ],
    [
      0,
      39
    ],
    [
      1,
      36
    ],
    [
      4,
      31
    ],
    [
      6,
      28
    ],
    [
      7,
      27
    ],
    [
      8,
      27
    ],
    [
      7,
      28
    ],
    [
      6,
      30
    ],
    [
      5,
      31
    ],
    [
      4,
      32
    ],
    [
      3,
      33
    ],
    [
      4,
      33
    ],
    [
      6,
      31
    ],
    [
      12,
      29
    ],
    [
      13,
      29
    ],
    [
      14,
      28
    ],
    [
      14,
      29
    ],
    [
      12,
      31
    ],
    [
      8,
      34
    ],
    [
      5,
      36
    ],
    [
      4,
      36
    ],
    [
      6,
      35
    ],
    [
      10,
      32
    ],
    [
      13,
      30
    ],
    [
      15,
      29
    ],
    [
      14,
      30
    ],
    [
      5,
      35
    ],
    [
      3,
      36
    ],
    [
      11,
      32
    ],
    [
      13,
      31
    ],
    [
      12,
      32
    ],
    [
      8,
      35
    ],
    [
      1,
      39
    ],
    [
      5,
      37
    ],
    [
      8,
      36
    ],
    [
      10,
      35
    ],
    [
      9,
      36
    ],
    [
      7,
      38
    ],
    [
      2,
      41
    ],
    [
      3,
      39
    ],
    [
      7,
      37
    ],
    [
      10,
      36
    ],
    [
      6,
      39
    ],
    [
      4,
      40
    ],
    [
      3,
      40
    ],
    [
      6,
      38
    ],
    [
      9,
      37
    ],
    [
      11,
      36
    ],
    [
      10,
      37
    ],
    [
      8,
      39
    ],
    [
      5,
      40
    ],
    [
      9,
      38
    ],
    [
      14,
      36
    ],
    [
      15,
      37
    ],
    [
      13,
      38
    ],
    [
      10,
      39
    ],
    [
      14,
      37
    ],
    [
      15,
      38
    ],
    [
      14,
      39
    ],
    [
      10,
      41
    ],
    [
      7,
      42
    ],
    [
      8,
      42
    ],
    [
      9,
      42
    ],
    [
      10,
      42
    ],
    [
      11,
      42
    ],
    [
      12,
      42
    ],
    [
      13,
      42
    ],
    [
      14,
      42
    ],
    [
      15,
      42
    ],
    [
      11,
      41
    ],
    [
      12,
      41
    ],
    [
      13,
      41
    ],
    [
      9,
      41
    ],
    [
      8,
      41
    ],
    [
      7,
      41
    ],
    [
      6,
      42
    ],
    [
      5,
      42
    ],
    [
      3,
      41
    ],
    [
      2,
      40
    ],
    [
      1,
      38
    ],
    [
      1,
      37
    ],
    [
      0,
      37
    ],
    [
      0,
      36
    ],
    [
      0,
      38
    ],
    [
      0,
      40
    ],
    [
      1,
      41
    ],
    [
      1,
      40
    ],
    [
      2,
      39
    ],
    [
      3,
      38
    ],
    [
      2,
      37
    ],
    [
      2,
      36
    ],
    [
      2,
      35
    ],
    [
      2,
      34
    ],
    [
      2,
      33
    ],
    [
      2,
      32
    ],
    [
      1,
      32
    ],
    [
      1,
      31
    ],
    [
      1,
      30
    ],
    [
      1,
      29
    ],
    [
      0,
      29
    ],
    [
      0,
      30
    ],
    [
      0,
      31
    ],
    [
      0,
      32
    ],
    [
      0,
      33
    ],
    [
      0,
      34
    ],
    [
      0,
      35
    ],
    [
      1,
      35
    ],
    [
      1,
      34
    ],
    [
      1,
      33
    ],
    [
      0,
      28
    ],
    [
      0,
      27
    ],
    [
      0,
      26
    ],
    [
      0,
      25
    ],
    [
      1,
      25
    ],
    [
      2,
      25
    ],
    [
      3,
      25
    ],
    [
      4,
      26
    ],
    [
      5,
      26
    ],
    [
      6,
      26
    ],
    [
      7,
      26
    ],
    [
      8,
      26
    ],
    [
      9,
      26
    ],
    [
      9,
      25
    ],
    [
      10,
      25
    ],
    [
      11,
      25
    ],
    [
      11,
      26
    ],
    [
      12,
      26
    ],
    [
      13,
      26
    ],
    [
      14,
      26
    ],
    [
      15,
      26
    ],
    [
      16,
      26
    ],
    [
      16,
      25
    ],
    [
      13,
      25
    ],
    [
      12,
      25
    ],
    [
      8,
      25
    ],
    [
      7,
      25
    ],
    [
      6,
      25
    ],
    [
      5,
      25
    ],
    [
      4,
      25
    ],
    [
      2,
      26
    ],
    [
      1,
      26
    ],
    [
      1,
      27
    ],
    [
      1,
      28
    ],
    [
      2,
      28
    ],
    [
      3,
      27
    ],
    [
      2,
      27
    ],
    [
      3,
      26
    ],
    [
      4,
      27
    ],
    [
      4,
      28
    ],
    [
      4,
      29
    ],
    [
      4,
      30
    ],
    [
      3,
      32
    ],
    [
      3,
      31
    ],
    [
      2,
      31
    ],
    [
      2,
      30
    ],
    [
      2,
      29
    ],
    [
      3,
      28
    ],
    [
      3,
      29
    ],
    [
      3,
      30
    ],
    [
      4,
      34
    ],
    [
      4,
      35
    ],
    [
      4,
      37
    ],
    [
      3,
      37
    ],
    [
      2,
      38
    ],
    [
      3,
      35
    ],
    [
      3,
      34
    ],
    [
      4,
      38
    ],
    [
      4,
      39
    ],
    [
      5,
      38
    ],
    [
      6,
      37
    ],
    [
      7,
      39
    ],
    [
      5,
      39
    ],
    [
      11,
      38
    ],
    [
      12,
      37
    ],
    [
      13,
      37
    ],
    [
      14,
      38
    ],
    [
      15,
      39
    ],
    [
      15,
      40
    ],
    [
      16,
      40
    ],
    [
      17,
      36
    ],
    [
      12,
      39
    ],
    [
      12,
      38
    ],
    [
      10,
      38
    ],
    [
      13,
      39
    ],
    [
      11,
      39
    ],
    [
      9,
      39
    ],
    [
      8,
      38
    ],
    [
      11,
      37
    ],
    [
      12,
      36
    ],
    [
      8,
      37
    ],
    [
      7,
      36
    ],
    [
      7,
      35
    ],
    [
      6,
      36
    ],
    [
      6,
      33
    ],
    [
      6,
      32
    ],
    [
      7,
      31
    ],
    [
      7,
      30
    ],
    [
      7,
      29
    ],
    [
      6,
      27
    ],
    [
      5,
      28
    ],
    [
      5,
      29
    ],
    [
      5,
      27
    ],
    [
      5,
      30
    ],
    [
      6,
      29
    ],
    [
      5,
      32
    ],
    [
      5,
      33
    ],
    [
      6,
      34
    ],
    [
      7,
      33
    ],
    [
      9,
      32
    ],
    [
      9,
      31
    ],
    [
      8,
      33
    ],
    [
      7,
      34
    ],
    [
      7,
      32
    ],
    [
      8,
      32
    ],
    [
      8,
      31
    ],
    [
      5,
      34
    ],
    [
      9,
      30
    ],
    [
      10,
      30
    ],
    [
      11,
      30
    ],
    [
      10,
      33
    ],
    [
      9,
      33
    ],
    [
      14,
      31
    ],
    [
      13,
      33
    ],
    [
      12,
      34
    ],
    [
      13,
      34
    ],
    [
      14,
      33
    ],
    [
      15,
      33
    ],
    [
      14,
      34
    ],
    [
      12,
      35
    ],
    [
      11,
      35
    ],
    [
      13,
      32
    ],
    [
      12,
      33
    ],
    [
      10,
      34
    ],
    [
      9,
      35
    ],
    [
      15,
      30
    ],
    [
      11,
      33
    ],
    [
      11,
      34
    ],
    [
      9,
      34
    ],
    [
      14,
      32
    ],
    [
      15,
      32
    ],
    [
      15,
      31
    ],
    [
      15,
      34
    ],
    [
      15,
      35
    ],
    [
      14,
      35
    ],
    [
      15,
      36
    ],
    [
      13,
      35
    ],
    [
      13,
      36
    ],
    [
      11,
      31
    ],
    [
      12,
      30
    ],
    [
      10,
      31
    ],
    [
      9,
      29
    ],
    [
      9,
      28
    ],
    [
      9,
      27
    ],
    [
      10,
      27
    ],
    [
      10,
      28
    ],
    [
      10,
      29
    ],
    [
      8,
      28
    ],
    [
      8,
      29
    ],
    [
      8,
      30
    ],
    [
      10,
      26
    ],
    [
      11,
      27
    ],
    [
      12,
      28
    ],
    [
      11,
      29
    ],
    [
      12,
      27
    ],
    [
      11,
      28
    ],
    [
      13,
      27
    ],
    [
      14,
      27
    ],
    [
      15,
      27
    ],
    [
      15,
      28
    ],
    [
      13,
      28
    ],
    [
      16,
      27
    ],
    [
      16,
      28
    ],
    [
      15,
      25
    ],
    [
      14,
      25
    ],
    [
      17,
      17
    ],
    [
      17,
      16
    ],
    [
      16,
      15
    ],
    [
      16,
      14
    ],
    [
      16,
      13
    ],
    [
      15,
      13
    ],
    [
      15,
      12
    ],
    [
      15,
      11
    ],
    [
      15,
      10
    ],
    [
      15,
      9
    ],
    [
      15,
      8
    ],
    [
      16,
      8
    ],
    [
      16,
      9
    ],
    [
      16,
      10
    ],
    [
      16,
      11
    ],
    [
      16,
      12
    ],
    [
      17,
      15
    ],
    [
      17,
      11
    ],
    [
      17,
      10
    ],
    [
      17,
      9
    ],
    [
      17,
      8
    ],
    [
      17,
      7
    ],
    [
      16,
      7
    ],
    [
      13,
      8
    ],
    [
      12,
      9
    ],
    [
      11,
      9
    ],
    [
      10,
      9
    ],
    [
      10,
      10
    ],
    [
      9,
      10
    ],
    [
      8,
      10
    ],
    [
      8,
      9
    ],
    [
      7,
      8
    ],
    [
      7,
      7
    ],
    [
      8,
      5
    ],
    [
      9,
      5
    ],
    [
      8,
      7
    ],
    [
      8,
      8
    ],
    [
      6,
      10
    ],
    [
      5,
      11
    ],
    [
      3,
      13
    ],
    [
      3,
      12
    ],
    [
      4,
      11
    ],
    [
      6,
      9
    ],
    [
      9,
      7
    ],
    [
      9,
      8
    ],
    [
      7,
      10
    ],
    [
      6,
      11
    ],
    [
      5,
      12
    ],
    [
      5,
      13
    ],
    [
      7,
      11
    ],
    [
      9,
      9
    ],
    [
      7,
      12
    ],
    [
      6,
      13
    ],
    [
      5,
      14
    ],
    [
      4,
      14
    ],
    [
      9,
      12
    ],
    [
      12,
      10
    ],
    [
      13,
      9
    ],
    [
      13,
      10
    ],
    [
      12,
      12
    ],
    [
      11,
      12
    ],
    [
      12,
      11
    ],
    [
      14,
      9
    ],
    [
      10,
      13
    ],
    [
      9,
      14
    ],
    [
      8,
      14
    ],
    [
      7,
      14
    ],
    [
      8,
      12
    ],
    [
      11,
      10
    ],
    [
      11,
      13
    ],
    [
      8,
      15
    ],
    [
      7,
      16
    ],
    [
      6,
      16
    ],
    [
      10,
      14
    ],
    [
      12,
      13
    ],
    [
      13,
      12
    ],
    [
      14,
      12
    ],
    [
      13,
      13
    ],
    [
      12,
      15
    ],
    [
      11,
      16
    ],
    [
      10,
      17
    ],
    [
      13,
      15
    ],
    [
      14,
      14
    ],
    [
      15,
      14
    ],
    [
      14,
      15
    ],
    [
      13,
      17
    ],
    [
      12,
      17
    ],
    [
      14,
      16
    ],
    [
      15,
      15
    ],
    [
      15,
      16
    ],
    [
      14,
      17
    ],
    [
      15,
      17
    ],
    [
      16,
      16
    ],
    [
      16,
      17
    ],
    [
      17,
      13
    ],
    [
      17,
      12
    ],
    [
      17,
      14
    ],
    [
      12,
      16
    ],
    [
      10,
      16
    ],
    [
      9,
      16
    ],
    [
      9,
      17
    ],
    [
      11,
      17
    ],
    [
      13,
      16
    ],
    [
      8,
      16
    ],
    [
      5,
      16
    ],
    [
      4,
      16
    ],
    [
      3,
      16
    ],
    [
      2,
      16
    ],
    [
      1,
      16
    ],
    [
      1,
      15
    ],
    [
      0,
      15
    ],
    [
      0,
      16
    ],
    [
      0,
      17
    ],
    [
      1,
      17
    ],
    [
      2,
      17
    ],
    [
      3,
      17
    ],
    [
      4,
      17
    ],
    [
      5,
      17
    ],
    [
      6,
      17
    ],
    [
      7,
      17
    ],
    [
      8,
      17
    ],
    [
      3,
      15
    ],
    [
      0,
      14
    ],
    [
      0,
      8
    ],
    [
      0,
      7
    ],
    [
      0,
      6
    ],
    [
      1,
      9
    ],
    [
      1,
      10
    ],
    [
      1,
      11
    ],
    [
      2,
      12
    ],
    [
      2,
      13
    ],
    [
      2,
      14
    ],
    [
      2,
      15
    ],
    [
      0,
      13
    ],
    [
      0,
      12
    ],
    [
      0,
      11
    ],
    [
      0,
      10
    ],
    [
      0,
      9
    ],
    [
      1,
      12
    ],
    [
      1,
      13
    ],
    [
      1,
      14
    ],
    [
      3,
      14
    ],
    [
      4,
      13
    ],
    [
      6,
      12
    ],
    [
      6,
      14
    ],
    [
      5,
      15
    ],
    [
      6,
      15
    ],
    [
      7,
      15
    ],
    [
      4,
      15
    ],
    [
      8,
      13
    ],
    [
      9,
      13
    ],
    [
      9,
      15
    ],
    [
      11,
      14
    ],
    [
      11,
      15
    ],
    [
      10,
      15
    ],
    [
      12,
      14
    ],
    [
      14,
      13
    ],
    [
      13,
      14
    ],
    [
      14,
      11
    ],
    [
      14,
      10
    ],
    [
      11,
      11
    ],
    [
      10,
      11
    ],
    [
      9,
      11
    ],
    [
      7,
      13
    ],
    [
      8,
      11
    ],
    [
      10,
      12
    ],
    [
      13,
      11
    ],
    [
      8,
      6
    ],
    [
      8,
      4
    ],
    [
      6,
      6
    ],
    [
      5,
      8
    ],
    [
      4,
      9
    ],
    [
      2,
      10
    ],
    [
      3,
      8
    ],
    [
      5,
      5
    ],
    [
      6,
      4
    ],
    [
      7,
      3
    ],
    [
      8,
      3
    ],
    [
      7,
      5
    ],
    [
      6,
      7
    ],
    [
      5,
      9
    ],
    [
      4,
      10
    ],
    [
      7,
      6
    ],
    [
      9,
      4
    ],
    [
      9,
      6
    ],
    [
      7,
      9
    ],
    [
      10,
      7
    ],
    [
      10,
      6
    ],
    [
      10,
      8
    ],
    [
      10,
      5
    ],
    [
      4,
      12
    ],
    [
      5,
      10
    ],
    [
      6,
      8
    ],
    [
      3,
      10
    ],
    [
      4,
      8
    ],
    [
      6,
      5
    ],
    [
      7,
      4
    ],
    [
      4,
      6
    ],
    [
      1,
      8
    ],
    [
      3,
      6
    ],
    [
      4,
      5
    ],
    [
      5,
      4
    ],
    [
      3,
      7
    ],
    [
      2,
      9
    ],
    [
      4,
      7
    ],
    [
      2,
      11
    ],
    [
      3,
      11
    ],
    [
      6,
      2
    ],
    [
      6,
      1
    ],
    [
      6,
      3
    ],
    [
      2,
      7
    ],
    [
      2,
      8
    ],
    [
      5,
      7
    ],
    [
      3,
      9
    ],
    [
      2,
      6
    ],
    [
      3,
      5
    ],
    [
      4,
      4
    ],
    [
      5,
      3
    ],
    [
      3,
      4
    ],
    [
      1,
      6
    ],
    [
      2,
      4
    ],
    [
      4,
      2
    ],
    [
      5,
      1
    ],
    [
      6,
      0
    ],
    [
      4,
      3
    ],
    [
      2,
      5
    ],
    [
      1,
      5
    ],
    [
      3,
      2
    ],
    [
      4,
      1
    ],
    [
      5,
      0
    ],
    [
      0,
      5
    ],
    [
      1,
      3
    ],
    [
      3,
      1
    ],
    [
      3,
      3
    ],
    [
      2,
      3
    ],
    [
      3,
      0
    ],
    [
      0,
      4
    ],
    [
      1,
      2
    ],
    [
      1,
      1
    ],
    [
      0,
      1
    ],
    [
      0,
      2
    ],
    [
      0,
      3
    ],
    [
      0,
      0
    ],
    [
      1,
      0
    ],
    [
      2,
      0
    ],
    [
      2,
      1
    ],
    [
      2,
      2
    ],
    [
      1,
      4
    ],
    [
      1,
      7
    ],
    [
      5,
      6
    ],
    [
      5,
      2
    ],
    [
      4,
      0
    ],
    [
      7,
      0
    ],
    [
      8,
      1
    ],
    [
      9,
      1
    ],
    [
      9,
      2
    ],
    [
      10,
      2
    ],
    [
      11,
      2
    ],
    [
      11,
      3
    ],
    [
      12,
      3
    ],
    [
      12,
      4
    ],
    [
      12,
      5
    ],
    [
      12,
      6
    ],
    [
      13,
      6
    ],
    [
      13,
      7
    ],
    [
      14,
      7
    ],
    [
      14,
      8
    ],
    [
      12,
      8
    ],
    [
      11,
      8
    ],
    [
      11,
      7
    ],
    [
      11,
      6
    ],
    [
      11,
      5
    ],
    [
      11,
      4
    ],
    [
      10,
      3
    ],
    [
      9,
      3
    ],
    [
      8,
      2
    ],
    [
      7,
      2
    ],
    [
      7,
      1
    ],
    [
      8,
      0
    ],
    [
      9,
      0
    ],
    [
      10,
      0
    ],
    [
      11,
      0
    ],
    [
      12,
      0
    ],
    [
      13,
      0
    ],
    [
      14,
      0
    ],
    [
      15,
      0
    ],
    [
      16,
      0
    ],
    [
      17,
      0
    ],
    [
      17,
      1
    ],
    [
      17,
      2
    ],
    [
      17,
      3
    ],
    [
      17,
      6
    ],
    [
      16,
      6
    ],
    [
      16,
      5
    ],
    [
      15,
      5
    ],
    [
      15,
      4
    ],
    [
      15,
      3
    ],
    [
      16,
      3
    ],
    [
      16,
      2
    ],
    [
      17,
      4
    ],
    [
      17,
      5
    ],
    [
      15,
      7
    ],
    [
      15,
      6
    ],
    [
      14,
      6
    ],
    [
      14,
      5
    ],
    [
      14,
      4
    ],
    [
      14,
      3
    ],
    [
      14,
      2
    ],
    [
      15,
      2
    ],
    [
      16,
      4
    ],
    [
      13,
      5
    ],
    [
      12,
      7
    ],
    [
      10,
      4
    ],
    [
      10,
      1
    ],
    [
      11,
      1
    ],
    [
      12,
      1
    ],
    [
      13,
      1
    ],
    [
      14,
      1
    ],
    [
      15,
      1
    ],
    [
      16,
      1
    ],
    [
      13,
      2
    ],
    [
      12,
      2
    ],
    [
      13,
      3
    ],
    [
      13,
      4
    ],
    [
      25,
      17
    ],
    [
      27,
      16
    ],
    [
      28,
      15
    ],
    [
      29,
      15
    ],
    [
      30,
      15
    ],
    [
      30,
      14
    ],
    [
      31,
      14
    ],
    [
      32,
      14
    ],
    [
      32,
      13
    ],
    [
      33,
      13
    ],
    [
      34,
      12
    ],
    [
      35,
      12
    ],
    [
      35,
      11
    ],
    [
      36,
      11
    ],
    [
      37,
      11
    ],
    [
      38,
      11
    ],
    [
      38,
      10
    ],
    [
      39,
      10
    ],
    [
      40,
      10
    ],
    [
      31,
      13
    ],
    [
      28,
      16
    ],
    [
      27,
      17
    ],
    [
      26,
      17
    ],
    [
      28,
      17
    ],
    [
      29,
      16
    ],
    [
      30,
      16
    ],
    [
      31,
      17
    ],
    [
      32,
      17
    ],
    [
      32,
      16
    ],
    [
      33,
      16
    ],
    [
      34,
      16
    ],
    [
      30,
      17
    ],
    [
      29,
      17
    ],
    [
      31,
      16
    ],
    [
      35,
      16
    ],
    [
      36,
      16
    ],
    [
      37,
      16
    ],
    [
      36,
      17
    ],
    [
      35,
      17
    ],
    [
      34,
      17
    ],
    [
      33,
      17
    ],
    [
      37,
      17
    ],
    [
      38,
      17
    ],
    [
      39,
      17
    ],
    [
      40,
      17
    ],
    [
      41,
      17
    ],
    [
      42,
      17
    ],
    [
      42,
      16
    ],
    [
      42,
      15
    ],
    [
      41,
      14
    ],
    [
      41,
      13
    ],
    [
      41,
      12
    ],
    [
      41,
      11
    ],
    [
      40,
      11
    ],
    [
      40,
      9
    ],
    [
      39,
      12
    ],
    [
      39,
      13
    ],
    [
      39,
      14
    ],
    [
      38,
      14
    ],
    [
      38,
      15
    ],
    [
      38,
      16
    ],
    [
      38,
      13
    ],
    [
      39,
      11
    ],
    [
      39,
      15
    ],
    [
      39,
      16
    ],
    [
      40,
      13
    ],
    [
      40,
      12
    ],
    [
      40,
      15
    ],
    [
      40,
      16
    ],
    [
      40,
      14
    ],
    [
      41,
      16
    ],
    [
      41,
      15
    ],
    [
      33,
      14
    ],
    [
      33,
      15
    ],
    [
      32,
      15
    ],
    [
      34,
      14
    ],
    [
      35,
      14
    ],
    [
      36,
      13
    ],
    [
      37,
      13
    ],
    [
      36,
      14
    ],
    [
      34,
      15
    ],
    [
      34,
      13
    ],
    [
      36,
      12
    ],
    [
      33,
      12
    ],
    [
      31,
      15
    ],
    [
      35,
      13
    ],
    [
      37,
      12
    ],
    [
      38,
      12
    ],
    [
      35,
      15
    ],
    [
      37,
      14
    ],
    [
      37,
      15
    ],
    [
      36,
      15
    ],
    [
      27,
      15
    ],
    [
      26,
      16
    ],
    [
      26,
      15
    ],
    [
      26,
      14
    ],
    [
      26,
      13
    ],
    [
      27,
      13
    ],
    [
      28,
      12
    ],
    [
      29,
      12
    ],
    [
      28,
      13
    ],
    [
      27,
      14
    ],
    [
      29,
      11
    ],
    [
      30,
      10
    ],
    [
      30,
      9
    ],
    [
      31,
      9
    ],
    [
      31,
      10
    ],
    [
      32,
      9
    ],
    [
      33,
      9
    ],
    [
      32,
      10
    ],
    [
      31,
      12
    ],
    [
      29,
      14
    ],
    [
      30,
      12
    ],
    [
      31,
      11
    ],
    [
      33,
      8
    ],
    [
      29,
      13
    ],
    [
      30,
      11
    ],
    [
      28,
      14
    ],
    [
      25,
      16
    ],
    [
      25,
      11
    ],
    [
      25,
      12
    ],
    [
      25,
      13
    ],
    [
      25,
      14
    ],
    [
      25,
      15
    ],
    [
      26,
      11
    ],
    [
      26,
      10
    ],
    [
      26,
      9
    ],
    [
      26,
      8
    ],
    [
      26,
      7
    ],
    [
      26,
      6
    ],
    [
      26,
      5
    ],
    [
      26,
      4
    ],
    [
      26,
      3
    ],
    [
      26,
      2
    ],
    [
      27,
      5
    ],
    [
      27,
      6
    ],
    [
      27,
      8
    ],
    [
      27,
      9
    ],
    [
      27,
      10
    ],
    [
      25,
      10
    ],
    [
      25,
      9
    ],
    [
      25,
      8
    ],
    [
      27,
      2
    ],
    [
      27,
      1
    ],
    [
      27,
      0
    ],
    [
      26,
      1
    ],
    [
      25,
      7
    ],
    [
      25,
      6
    ],
    [
      25,
      5
    ],
    [
      25,
      4
    ],
    [
      25,
      3
    ],
    [
      25,
      2
    ],
    [
      25,
      1
    ],
    [
      25,
      0
    ],
    [
      26,
      0
    ],
    [
      28,
      0
    ],
    [
      28,
      1
    ],
    [
      29,
      2
    ],
    [
      29,
      3
    ],
    [
      29,
      4
    ],
    [
      29,
      6
    ],
    [
      28,
      7
    ],
    [
      28,
      8
    ],
    [
      28,
      10
    ],
    [
      27,
      11
    ],
    [
      27,
      12
    ],
    [
      28,
      11
    ],
    [
      29,
      10
    ],
    [
      31,
      8
    ],
    [
      32,
      8
    ],
    [
      29,
      9
    ],
    [
      28,
      9
    ],
    [
      29,
      8
    ],
    [
      30,
      8
    ],
    [
      26,
      12
    ],
    [
      30,
      13
    ],
    [
      36,
      10
    ],
    [
      38,
      9
    ],
    [
      39,
      8
    ],
    [
      39,
      7
    ],
    [
      40,
      7
    ],
    [
      40,
      6
    ],
    [
      38,
      8
    ],
    [
      36,
      9
    ],
    [
      35,
      10
    ],
    [
      33,
      11
    ],
    [
      32,
      12
    ],
    [
      34,
      10
    ],
    [
      34,
      9
    ],
    [
      35,
      9
    ],
    [
      34,
      11
    ],
    [
      36,
      7
    ],
    [
      38,
      6
    ],
    [
      40,
      5
    ],
    [
      39,
      6
    ],
    [
      38,
      7
    ],
    [
      36,
      8
    ],
    [
      39,
      5
    ],
    [
      37,
      10
    ],
    [
      41,
      7
    ],
    [
      41,
      8
    ],
    [
      41,
      10
    ],
    [
      41,
      9
    ],
    [
      42,
      9
    ],
    [
      42,
      10
    ],
    [
      42,
      11
    ],
    [
      42,
      13
    ],
    [
      42,
      12
    ],
    [
      42,
      14
    ],
    [
      42,
      8
    ],
    [
      41,
      5
    ],
    [
      41,
      4
    ],
    [
      41,
      3
    ],
    [
      41,
      2
    ],
    [
      42,
      3
    ],
    [
      42,
      2
    ],
    [
      42,
      1
    ],
    [
      42,
      4
    ],
    [
      42,
      6
    ],
    [
      42,
      7
    ],
    [
      41,
      6
    ],
    [
      42,
      5
    ],
    [
      40,
      8
    ],
    [
      39,
      9
    ],
    [
      33,
      7
    ],
    [
      34,
      7
    ],
    [
      33,
      10
    ],
    [
      32,
      11
    ],
    [
      40,
      4
    ],
    [
      37,
      6
    ],
    [
      35,
      7
    ],
    [
      35,
      6
    ],
    [
      36,
      5
    ],
    [
      38,
      3
    ],
    [
      40,
      1
    ],
    [
      40,
      3
    ],
    [
      38,
      4
    ],
    [
      37,
      5
    ],
    [
      36,
      6
    ],
    [
      42,
      0
    ],
    [
      39,
      3
    ],
    [
      37,
      4
    ],
    [
      35,
      5
    ],
    [
      36,
      4
    ],
    [
      37,
      2
    ],
    [
      39,
      1
    ],
    [
      40,
      0
    ],
    [
      41,
      0
    ],
    [
      39,
      2
    ],
    [
      37,
      3
    ],
    [
      34,
      5
    ],
    [
      32,
      7
    ],
    [
      30,
      7
    ],
    [
      31,
      7
    ],
    [
      32,
      6
    ],
    [
      33,
      5
    ],
    [
      35,
      4
    ],
    [
      34,
      6
    ],
    [
      38,
      5
    ],
    [
      34,
      8
    ],
    [
      29,
      7
    ],
    [
      31,
      4
    ],
    [
      32,
      3
    ],
    [
      33,
      2
    ],
    [
      34,
      2
    ],
    [
      33,
      3
    ],
    [
      32,
      5
    ],
    [
      30,
      5
    ],
    [
      27,
      7
    ],
    [
      30,
      3
    ],
    [
      28,
      5
    ],
    [
      28,
      6
    ],
    [
      28,
      4
    ],
    [
      30,
      1
    ],
    [
      27,
      4
    ],
    [
      27,
      3
    ],
    [
      28,
      3
    ],
    [
      28,
      2
    ],
    [
      29,
      0
    ],
    [
      30,
      0
    ],
    [
      31,
      0
    ],
    [
      30,
      2
    ],
    [
      32,
      0
    ],
    [
      33,
      0
    ],
    [
      34,
      0
    ],
    [
      32,
      1
    ],
    [
      29,
      5
    ],
    [
      33,
      6
    ],
    [
      34,
      4
    ],
    [
      39,
      0
    ],
    [
      38,
      2
    ],
    [
      34,
      3
    ],
    [
      31,
      5
    ],
    [
      36,
      3
    ],
    [
      31,
      6
    ],
    [
      33,
      4
    ],
    [
      39,
      4
    ],
    [
      37,
      7
    ],
    [
      37,
      8
    ],
    [
      37,
      9
    ],
    [
      35,
      8
    ],
    [
      40,
      2
    ],
    [
      41,
      1
    ],
    [
      36,
      2
    ],
    [
      37,
      1
    ],
    [
      38,
      1
    ],
    [
      35,
      3
    ],
    [
      35,
      2
    ],
    [
      36,
      1
    ],
    [
      38,
      0
    ],
    [
      32,
      4
    ],
    [
      37,
      0
    ],
    [
      35,
      1
    ],
    [
      35,
      0
    ],
    [
      36,
      0
    ],
    [
      33,
      1
    ],
    [
      31,
      1
    ],
    [
      31,
      2
    ],
    [
      32,
      2
    ],
    [
      34,
      1
    ],
    [
      31,
      3
    ],
    [
      30,
      6
    ],
    [
      30,
      4
    ],
    [
      29,
      1
    ]
  ],
  "ice": [
    [
      24,
      21
    ],
    [
      24,
      22
    ],
    [
      23,
      22
    ],
    [
      22,
      23
    ],
    [
      21,
      23
    ],
    [
      20,
      23
    ],
    [
      19,
      22
    ],
    [
      19,
      21
    ],
    [
      18,
      21
    ],
    [
      18,
      20
    ],
    [
      18,
      19
    ],
    [
      19,
      19
    ],
    [
      21,
      18
    ],
    [
      22,
      18
    ],
    [
      24,
      19
    ],
    [
      24,
      20
    ],
    [
      23,
      20
    ],
    [
      19,
      20
    ],
    [
      22,
      19
    ],
    [
      23,
      19
    ],
    [
      23,
      21
    ],
    [
      21,
      19
    ],
    [
      20,
      18
    ],
    [
      19,
      18
    ],
    [
      23,
      18
    ],
    [
      23,
      24
    ],
    [
      22,
      24
    ],
    [
      21,
      24
    ],
    [
      20,
      24
    ],
    [
      19,
      24
    ],
    [
      18,
      23
    ],
    [
      18,
      22
    ],
    [
      19,
      23
    ],
    [
      24,
      23
    ],
    [
      23,
      23
    ],
    [
      20,
      19
    ],
    [
      20,
      20
    ],
    [
      22,
      20
    ],
    [
      22,
      22
    ],
    [
      20,
      22
    ]
  ],
  "food": [
    [
      21,
      1,
      "default"
    ]
  ],
  "snake": [
    [
      21,
      42
    ],
    [
      21,
      41
    ],
    [
      21,
      40
    ],
    [
      21,
      39
    ],
    [
      21,
      38
    ],
    [
      21,
      37
    ]
  ],
  "cannon": [],
  "defaultFood": "default"
}
